{
    "code": 200,
    "data": {
        "enable": true,
        "maxActivatedDeviceCount": 2,
        "maxActivatedUserCount": 1,
        "grayScaleBase": 5,
        "grayScaleRange": [0, 1, 2, 3, 4],
        "beginVer": "1.3.4",
        "endVer": "1.3.5",
        "exceptionVers": [],
    },
}
